<svg xmlns="http://www.w3.org/2000/svg" xmlns:xlink="http://www.w3.org/1999/xlink" width="60" height="57" viewBox="0 0 60 57">
  <defs>
    <clipPath id="clip-Linkedin_blue">
      <rect width="60" height="57"/>
    </clipPath>
  </defs>
  <g id="Linkedin_blue" data-name="Linkedin blue" clip-path="url(#clip-Linkedin_blue)">
    <g id="Group_1041" data-name="Group 1041" transform="translate(16.27 16)">
      <g id="Group_84" data-name="Group 84">
        <path id="Path_108" data-name="Path 108" d="M509.346-321.35h-6.073v-17.435h6l.141,1.954a6.707,6.707,0,0,1,7.547-2.038c3.017.947,4.168,3.47,4.338,6.3.221,3.694.054,7.412.054,11.2H515.24v-7.872c0-.772.012-1.543-.005-2.315-.044-1.973-1.077-3.171-2.743-3.2a3.281,3.281,0,0,0-3.139,3.324c-.023,2.9-.006,5.805-.008,8.709Z" transform="translate(-494.111 347.296)" fill="#0c6594"/>
        <path id="Path_109" data-name="Path 109" d="M502.348-338.906v17.433h-6.061v-17.433Z" transform="translate(-496.07 347.399)" fill="#0c6594"/>
        <path id="Path_110" data-name="Path 110" d="M502.611-342.306a3.3,3.3,0,0,1-3.23,3.239,3.284,3.284,0,0,1-3.262-3.314,3.216,3.216,0,0,1,3.28-3.159A3.233,3.233,0,0,1,502.611-342.306Z" transform="translate(-496.117 345.539)" fill="#0c6594"/>
      </g>
    </g>
  </g>
</svg>
