<svg xmlns="http://www.w3.org/2000/svg" xmlns:xlink="http://www.w3.org/1999/xlink" width="60" height="57" viewBox="0 0 60 57">
  <defs>
    <clipPath id="clip-twitter">
      <rect width="60" height="57"/>
    </clipPath>
  </defs>
  <g id="twitter" clip-path="url(#clip-twitter)">
    <path id="Path_106" data-name="Path 106" d="M407.228-328.743a9.428,9.428,0,0,0,6.271-1.944,4.992,4.992,0,0,1-4.2-2.938l1.756-.167c-1.77-.962-3.236-2.087-3.243-4.393l1.666.463c-1.794-1.725-2.04-3.7-1.2-6.034a13.686,13.686,0,0,0,9.13,4.722,14.915,14.915,0,0,1,.212-2.187,4.39,4.39,0,0,1,6.831-2.569,1.989,1.989,0,0,0,2.252.21c.375-.165.742-.344,1.113-.517l.184.148-1.687,2.182,2.235-.585c-.016.062-.015.094-.031.112a10.935,10.935,0,0,0-2,2.355c-.4.884-.15,2.037-.429,3-1.4,4.857-4.256,8.408-9.355,9.662a13.264,13.264,0,0,1-9.385-1.339C407.3-328.579,407.288-328.643,407.228-328.743Z" transform="translate(-388.141 364.388)" fill="#fff"/>
  </g>
</svg>
